<?xml version="1.0" encoding="utf-8"?>
<!-- Generator: Adobe Illustrator 26.1.0, SVG Export Plug-In . SVG Version: 6.00 Build 0)  -->
<svg version="1.1" id="Layer_1" xmlns="http://www.w3.org/2000/svg" xmlns:xlink="http://www.w3.org/1999/xlink" x="0px" y="0px"
	 viewBox="0 0 512 512" style="enable-background:new 0 0 512 512;" xml:space="preserve">
<g>
	<g>
		<g>
			<path d="M16.3,221.2C2.6,229.7,0,242.6,0,251.2c0,22.4,18.3,47.5,42.7,47.5h119.4c4.3,0.1,25.7,1.5,25.7,25.6
				c0,4.7,3.8,8.5,8.5,8.5s8.5-3.8,8.5-8.5c0-33.7-27.9-42.7-42.7-42.7H42.7c-14.2,0-25.6-16.6-25.6-30.4c0-4.4,0-17.9,26.5-20.9
				c4.5-0.5,7.8-4.4,7.6-9c-0.2-4.5-4-8.1-8.5-8.1c-14.1,0-25.6-11.5-25.6-25.6s11.5-25.6,25.6-25.6h17.1c4.7,0,8.5-3.8,8.5-8.5
				s-3.8-8.5-8.5-8.5c-14.1,0-25.6-11.5-25.6-25.6s11.5-25.6,25.6-25.6h25.6c4.7,0,8.5-3.8,8.5-8.5s-3.8-8.5-8.5-8.5
				c-8.9,0-17.1-8.1-17.1-17.1c0-8.6,8.4-17.1,17.1-17.1h128c35.6,0,48.4,7.1,63.3,15.3c12.6,6.9,26.8,14.8,55,18.8
				c4.7,0.7,9-2.6,9.7-7.2c0.7-4.7-2.6-9-7.2-9.7c-25.1-3.6-37.3-10.3-49.2-16.8c-15.5-8.5-31.5-17.4-71.5-17.4h-128
				c-17.9,0-34.1,16.3-34.1,34.1C51.2,66,53,71.9,56,77c-21.8,1.9-39,20.2-39,42.5c0,10.8,4.1,20.7,10.7,28.3
				c-16.2,6-27.8,21.7-27.8,40C0,201.3,6.4,213.4,16.3,221.2z"/>
			<path d="M435.2,68.3c-9.4,0-17.1,7.7-17.1,17.1s7.7,17.1,17.1,17.1c9.4,0,17.1-7.7,17.1-17.1S444.6,68.3,435.2,68.3z"/>
			<path d="M332.8,264.5c-25.4,0-57.4,28.3-74.3,45.2c-36.6,36.6-36.6,82.2-36.6,151.1c0,5.3-3.2,8.5-8.5,8.5
				c-29.5,0-42.7-13.2-42.7-42.7V324.3c0-4.7-3.8-8.5-8.5-8.5s-8.5,3.8-8.5,8.5v102.4c0,39.1,20.7,59.7,59.7,59.7
				c14.8,0,25.6-10.8,25.6-25.6c0-67,0-107.4,31.6-139c24.8-24.8,48.6-40.2,62.2-40.2c4.7,0,8.5-3.8,8.5-8.5
				C341.3,268.4,337.5,264.5,332.8,264.5z"/>
			<path d="M366.9,298.7h136.5c4.7,0,8.5-3.8,8.5-8.5v-256c0-4.7-3.8-8.5-8.5-8.5H366.9c-4.7,0-8.5,3.8-8.5,8.5v256
				C358.4,294.8,362.2,298.7,366.9,298.7z M375.5,42.7h119.5v238.9H375.5L375.5,42.7L375.5,42.7z"/>
		</g>
	</g>
</g>
</svg>
